I 12d202d0
D ab76a48
I 12d202d3
D ab76a40
I 12d23a70
I 12d23a71
D ab76a38
I 12d23a74
D ab76a30
I 12d23a76
D ab76a28
I 12d23a78
D ab76a20
I 12d23a7a
D ab76a18
I 12d23a7c
I 12d23a7d
I 12d23a80
I 12d23a84
I 12d23a86
I 12d23a8a
I 12d23a8c
D 12f41e70
I 12d23a8f
D 12f41c98
I 12d23a96
I 12d23a9d
I 12d23aa4
D 12f42000
I 12d23aa7
I 12d23aae
D 12f42a08
I 12d23ab1
D 12f429f8
I 12d23ab8
I 12d23abf
I 12d23ac5
I 12d23acc
I 12d23ad6
I 12d23ae0
I 12d23ae5
I 12d23aeb
I 12d23af1
I 12d23af4
I 12d23af7
I 12d23afd
I 12d23b02
I 12d23b1f
I 12d23b23
I 12d23b08
D 12f42aa8
I 12d23b0f
I 12d23b13
D 12f41e80
I 12d23b17
I 12d23b1a
I 12d23b1d
I 12d23b1f
I 12d23b23
I 12d23b08
D 12f42a58
I 12d23b0f
I 12d23b13
D 12f41e90
I 12d23b17
I 12d23b1a
I 12d23b1d
I 12d23b1f
I 12d23b23
I 12d23b25
I 12d23b28
I 12d23b2b
I 12d23b2f
I 12d23d30
I 12d23d33
I 12d23d35
I 12d23d38
I 12d23d58
I 12d23d5b
I 12d23d5e
I 12d23d62
I 12d23ec8
I 12d23ecb
I 12d23ece
I 12d23ed2
I 12d23ed8
D 12f42c90
I 12d23edb
I 12d23edf
I 12d23b13
D 12f41ea0
I 12d23b17
I 12d23b1a
I 12d23b1d
I 12d23b1f
I 12d23b23
I 12d23b08
D 12f42a60
I 12d23b0f
I 12d23b13
D 12f41eb0
I 12d23b17
I 12d23b1a
I 12d23b1d
I 12d23b1f
I 12d23b23
I 12d23b08
D 12f42a68
I 12d23b0f
I 12d23b13
D 12f41ec0
I 12d23b17
I 12d23b1a
I 12d23b1d
I 12d23b1f
I 12d23b23
I 12d23b08
D 12f42a88
I 12d23b0f
I 12d23b13
D 12f41ed0
I 12d23b17
I 12d23b1a
I 12d23b1d
I 12d23b1f
I 12d23b23
I 12d23b08
D 12f42a90
I 12d23b0f
I 12d23b13
D 12f41ee0
I 12d23b17
I 12d23b1a
I 12d23b1d
I 12d23b1f
I 12d23b23
I 12d23b08
D 12f42a50
I 12d23b0f
I 12d23b13
D 12f41ef0
I 12d23b17
I 12d23b1a
I 12d23b1d
I 12d23b1f
I 12d23b23
I 12d23b08
D 12f42a48
I 12d23b0f
I 12d23b13
D 12f41f00
I 12d23b17
I 12d23b1a
I 12d23b1d
I 12d23b1f
I 12d23b23
I 12d23b08
D 12f42ad8
I 12d23b0f
I 12d23b13
D 12f41f10
I 12d23b17
I 12d23b1a
I 12d23b1d
I 12d23b1f
I 12d23b23
I 12d23b08
D 12f42af0
I 12d23b0f
I 12d23b13
D 12f41f20
I 12d23b17
I 12d23b1a
I 12d23b1d
I 12d23b1f
I 12d23b23
I 12d23b08
D 12f42a70
I 12d23b0f
I 12d23b13
D 12f41f30
I 12d23b17
I 12d23b1a
I 12d23b1d
I 12d23b1f
I 12d23b23
I 12d23b08
D 12f42a78
I 12d23b0f
I 12d23b13
D 12f41f40
I 12d23b17
I 12d23b1a
I 12d23b1d
I 12d23b1f
I